…
## Step 1. Read in the data

First download and then read in with read.csv().

``` r
if (!file.exists("mtsamples.csv")){
  download.file("https://raw.githubusercontent.com/USCbiostats/data-science-data/master/00_mtsamples/mtsamples.csv", "mtsamples.csv", method="libcurl", timeout = 60)
}
mts <- read.csv("mtsamples.csv")
mts <- as_tibble(mts)
mts
```

    ## # A tibble: 4,999 × 6
    ##        X description                             medic…¹ sampl…² trans…³ keywo…⁴
    ##    <int> <chr>                                   <chr>   <chr>   <chr>   <chr>  
    ##  1     0 " A 23-year-old white female presents … " Alle… " Alle… "SUBJE… "aller…
    ##  2     1 " Consult for laparoscopic gastric byp… " Bari… " Lapa… "PAST … "baria…
    ##  3     2 " Consult for laparoscopic gastric byp… " Bari… " Lapa… "HISTO… "baria…
    ##  4     3 " 2-D M-Mode. Doppler.  "               " Card… " 2-D … "2-D M… "cardi…
    ##  5     4 " 2-D Echocardiogram"                   " Card… " 2-D … "1.  T… "cardi…
    ##  6     5 " Morbid obesity.  Laparoscopic anteco… " Bari… " Lapa… "PREOP… "baria…
    ##  7     6 " Liposuction of the supraumbilical ab… " Bari… " Lipo… "PREOP… "baria…
    ##  8     7 " 2-D Echocardiogram"                   " Card… " 2-D … "2-D E… "cardi…
    ##  9     8 " Suction-assisted lipectomy - lipodys… " Bari… " Lipe… "PREOP… "baria…
    ## 10     9 " Echocardiogram and Doppler"           " Card… " 2-D … "DESCR… "cardi…
    ## # … with 4,989 more rows, and abbreviated variable names ¹​medical_specialty,
    ## #   ²​sample_name, ³​transcription, ⁴​keywords
…
